…
``` r
mt_samples |>
   unnest_tokens(word, transcription) |>
  filter(!str_detect(word, "^[0-9]+$")) |> # [[:digit:]]+
  filter(!word %in% c("mg", "mm", "noted")) |>
  anti_join(stop_words, by = "word") |>
   group_by(medical_specialty) |>
   count(word, sort=TRUE) |>
  top_n(1, n)
```

    ## # A tibble: 31 × 3
    ## # Groups:   medical_specialty [30]
    ##    medical_specialty             word        n
    ##    <chr>                         <chr>   <int>
    ##  1 Surgery                       patient  4855
    ##  2 Orthopedic                    patient  1711
    ##  3 General Medicine              patient  1356
    ##  4 Gastroenterology              patient   835
    ##  5 Urology                       patient   776
    ##  6 Radiology                     left      701
    ##  7 Neurology                     left      672
    ##  8 Obstetrics / Gynecology       patient   628
    ##  9 SOAP / Chart / Progress Notes patient   537
    ## 10 Psychiatry / Psychology       patient   532
    ## # ℹ 21 more rows
…
